<?xml version="1.0" encoding="utf-8"?>
<!-- Svg Vector Icons : http://www.onlinewebfonts.com/icon -->
<!DOCTYPE svg PUBLIC "-//W3C//DTD SVG 1.1//EN" "http://www.w3.org/Graphics/SVG/1.1/DTD/svg11.dtd">
<svg version="1.1" xmlns="http://www.w3.org/2000/svg" xmlns:xlink="http://www.w3.org/1999/xlink" x="0px" y="0px" viewBox="0 0 1000 1000" enable-background="new 0 0 1000 1000" xml:space="preserve">
<metadata> Svg Vector Icons : http://www.onlinewebfonts.com/icon </metadata>
<g><path d="M982.2,932.1c10.8-11.3,10.3-29.3-0.9-40L768.1,688.5c-11.3-10.8-14.5-30.8-7.2-44.6c0,0,67.3-127.4,67.3-218.8C828.2,199.2,645.1,16,419.1,16C193.2,16,10,199.2,10,425.1c0,225.9,183.2,409.1,409.1,409.1c92.6,0,221.7-69.3,221.7-69.3c13.7-7.4,34.2-4.6,45.4,6.2l214.7,205.1c11.3,10.8,29.3,10.3,40-0.9L982.2,932.1z M95.9,425.1c0-178.5,144.7-323.2,323.2-323.2c178.5,0,323.2,144.7,323.2,323.2c0,178.5-144.7,323.2-323.2,323.2C240.6,748.4,95.9,603.6,95.9,425.1z"/></g>
</svg>